20180101 23:01:05.001|1001|101|98|25|20|99.9|TSTAT
20180101 23:01:09.521|1000|17|15|9|8|7.8|BATT
20180101 23:01:26.011|1001|101|98|25|20|99.8|TSTAT
20180101 23:01:38.001|1000|101|98|25|20|102.9|TSTAT
20180101 23:01:49.021|1000|101|98|25|20|87.9|TSTAT
20180101 23:02:09.014|1001|101|98|25|20|89.3|TSTAT
20180101 23:02:10.021|1001|101|98|25|20|89.4|TSTAT
20180101 23:02:11.302|1000|17|15|9|8|7.7|BATT
20180101 23:03:03.008|1000|101|98|25|20|102.7|TSTAT
20180101 23:03:05.009|1000|101|98|25|20|101.2|TSTAT
20180101 23:04:06.017|1001|101|98|25|20|89.9|TSTAT
20180101 23:04:11.531|1000|17|15|9|8|7.9|BATT
20180101 23:05:05.021|1001|101|98|25|20|89.9|TSTAT
20180101 23:05:07.421|1001|17|15|9|8|7.9|BATT

20180101 23:09:05.001|1001|101|98|25|20|99.9|TSTAT
20180101 23:09:09.521|1000|17|15|9|8|7.8|BATT
20180101 23:09:26.009|1001|101|98|25|20|99.8|TSTAT
20180101 23:09:38.001|1000|101|98|25|20|102.9|TSTAT
20180101 23:09:49.021|1000|101|98|25|20|87.9|TSTAT
20180101 23:12:09.014|1001|101|98|25|20|89.3|TSTAT
20180101 23:12:10.021|1001|101|98|25|20|89.4|TSTAT
20180101 23:12:11.302|1000|17|15|9|8|7.7|BATT
20180101 23:13:03.008|1000|101|98|25|20|102.7|TSTAT
20180101 23:13:05.009|1000|101|98|25|20|101.2|TSTAT
20180101 23:14:06.017|1001|101|98|25|20|89.9|TSTAT
20180101 23:14:11.531|1000|17|15|9|8|7.9|BATT
20180101 23:15:05.021|1001|101|98|25|20|89.9|TSTAT
20180101 23:15:07.421|1001|17|15|9|8|7.9|BATT
